Indicate Recurrent Date Time Event — step_time_event • extrasteps
…
data(Chicago)

on_easter <- yearly() %>% recur_on_easter()
on_weekend <- weekly() %>% recur_on_weekends()

rules <- list(easter = on_easter, weekend = on_weekend)

rec_spec <- recipe(ridership ~ date, data = Chicago) %>%
  step_time_event(date, rules = rules)

rec_spec_preped <- prep(rec_spec)

bake(rec_spec_preped, new_data = NULL)
#> # A tibble: 5,698 × 3
#>    ridership date_easter date_weekend
#>        <dbl>       <int>        <int>
#>  1     15.7            0            0
#>  2     15.8            0            0
#>  3     15.9            0            0
#>  4     15.9            0            0
#>  5     15.4            0            0
#>  6      2.42           0            1
#>  7      1.47           0            1
#>  8     15.5            0            0
#>  9     15.9            0            0
#> 10     15.9            0            0
#> # ℹ 5,688 more rows
…
