Time to Nearest Recurrent Date Time Event — step_date_nearest • extrasteps
…
data(Chicago)

on_easter <- yearly() %>% recur_on_easter()
on_weekend <- weekly() %>% recur_on_weekends()

rules <- list(easter = on_easter, weekend = on_weekend)

rec_spec <- recipe(ridership ~ date, data = Chicago) %>%
  step_date_nearest(date, rules = rules)

rec_spec_preped <- prep(rec_spec)

bake(rec_spec_preped, new_data = NULL)
#> # A tibble: 5,698 × 3
#>    ridership date_nearest_easter date_nearest_weekend
#>        <dbl>               <dbl>                <dbl>
#>  1     15.7                   83                    1
#>  2     15.8                   82                    2
#>  3     15.9                   81                    3
#>  4     15.9                   80                    2
#>  5     15.4                   79                    1
#>  6      2.42                  78                    0
#>  7      1.47                  77                    0
#>  8     15.5                   76                    1
#>  9     15.9                   75                    2
#> 10     15.9                   74                    3
#> # … with 5,688 more rows
…
