difftimearithmic Transformation — step_difftime • extrasteps
…
library(recipes)
example_date <- data.frame(
  dates = seq(as.Date("2010/1/1"), as.Date("2016/1/1"), by = "quarter")
 )

 example_datetime <- data.frame(
  datetimes = seq(ISOdate(1993,1,1), ISOdate(1993,1,2), by = "hour")
 )

rec <- recipe(~ dates, data = example_date) %>%
  step_difftime(dates, time = as.Date("2010/1/1"))

difftime_obj <- prep(rec)
juice(difftime_obj)
#> # A tibble: 25 × 1
#>       dates
#>       <dbl>
#>  1        0
#>  2  7776000
#>  3 15638400
#>  4 23587200
#>  5 31536000
#>  6 39312000
#>  7 47174400
#>  8 55123200
#>  9 63072000
#> 10 70934400
#> # … with 15 more rows

recipe(~ dates, data = example_date) %>%
  step_difftime(dates, time = as.Date("2010/1/1"), unit = "weeks") %>%
  prep() %>%
  juice()
#> # A tibble: 25 × 1
#>    dates
#>    <dbl>
#>  1   0  
#>  2  12.9
#>  3  25.9
#>  4  39  
#>  5  52.1
#>  6  65  
#>  7  78  
#>  8  91.1
#>  9 104. 
#> 10 117. 
#> # … with 15 more rows

recipe(~ datetimes, data = example_datetime) %>%
  step_difftime(datetimes, time = ISOdate(1993,1,1), unit = "secs") %>%
  prep() %>%
  juice()
#> # A tibble: 25 × 1
#>    datetimes
#>        <dbl>
#>  1         0
#>  2      3600
#>  3      7200
#>  4     10800
#>  5     14400
#>  6     18000
#>  7     21600
#>  8     25200
#>  9     28800
#> 10     32400
#> # … with 15 more rows
…
