Perform Min Max Scaling — step_minmax • extrasteps
…
An updated version of recipe with the new step added to the
sequence of existing steps (if any). For the tidy method, a tibble with
columns terms (the columns that will be affected) and base.

    Examples

library(recipes)

rec <- recipe(~., data = mtcars) %>%
  step_minmax(all_predictors()) %>%
  prep()

rec %>%
  bake(new_data = NULL)
#> # A tibble: 32 × 11
#>      mpg   cyl   disp     hp  drat    wt  qsec    vs    am  gear  carb
#>    <dbl> <dbl>  <dbl>  <dbl> <dbl> <dbl> <dbl> <dbl> <dbl> <dbl> <dbl>
#>  1 0.451   0.5 0.222  0.205  0.525 0.283 0.233     0     1   0.5 0.429
#>  2 0.451   0.5 0.222  0.205  0.525 0.348 0.3       0     1   0.5 0.429
#>  3 0.528   0   0.0920 0.145  0.502 0.206 0.489     1     1   0.5 0    
#>  4 0.468   0.5 0.466  0.205  0.147 0.435 0.588     1     0   0   0    
#>  5 0.353   1   0.721  0.435  0.180 0.493 0.3       0     0   0   0.143
#>  6 0.328   0.5 0.384  0.187  0     0.498 0.681     1     0   0   0    
#>  7 0.166   1   0.721  0.682  0.207 0.526 0.160     0     0   0   0.429
#>  8 0.596   0   0.189  0.0353 0.429 0.429 0.655     1     0   0.5 0.143
#>  9 0.528   0   0.174  0.152  0.535 0.419 1         1     0   0.5 0.143
#> 10 0.374   0.5 0.241  0.251  0.535 0.493 0.452     1     0   0.5 0.429
#> # ℹ 22 more rows

tidy(rec, 1)
#> # A tibble: 22 × 4
#>    terms statistic value id          
#>    <chr> <chr>     <dbl> <chr>       
#>  1 mpg   min       10.4  minmax_pw6To
#>  2 cyl   min        4    minmax_pw6To
#>  3 disp  min       71.1  minmax_pw6To
#>  4 hp    min       52    minmax_pw6To
#>  5 drat  min        2.76 minmax_pw6To
#>  6 wt    min        1.51 minmax_pw6To
#>  7 qsec  min       14.5  minmax_pw6To
#>  8 vs    min        0    minmax_pw6To
#>  9 am    min        0    minmax_pw6To
#> 10 gear  min        3    minmax_pw6To
#> # ℹ 12 more rows
…
