Perform Max Abs Scaling — step_maxabs • extrasteps
…
    An updated version of recipe with the new step added to the
sequence of existing steps (if any). For the tidy method, a tibble with
columns terms (the columns that will be affected) and base.

    Examples

library(recipes)

rec <- recipe(~., data = mtcars) %>%
  step_maxabs(all_predictors()) %>%
  prep()

rec %>%
  bake(new_data = NULL)
#> # A tibble: 32 × 11
#>      mpg   cyl  disp    hp  drat    wt  qsec    vs    am  gear  carb
#>    <dbl> <dbl> <dbl> <dbl> <dbl> <dbl> <dbl> <dbl> <dbl> <dbl> <dbl>
#>  1 0.619  0.75 0.339 0.328 0.791 0.483 0.719     0     1   0.8 0.5  
#>  2 0.619  0.75 0.339 0.328 0.791 0.530 0.743     0     1   0.8 0.5  
#>  3 0.673  0.5  0.229 0.278 0.781 0.428 0.813     1     1   0.8 0.125
#>  4 0.631  0.75 0.547 0.328 0.625 0.593 0.849     1     0   0.6 0.125
#>  5 0.552  1    0.763 0.522 0.639 0.634 0.743     0     0   0.6 0.25 
#>  6 0.534  0.75 0.477 0.313 0.560 0.638 0.883     1     0   0.6 0.125
#>  7 0.422  1    0.763 0.731 0.651 0.658 0.692     0     0   0.6 0.5  
#>  8 0.720  0.5  0.311 0.185 0.748 0.588 0.873     1     0   0.8 0.25 
#>  9 0.673  0.5  0.298 0.284 0.795 0.581 1         1     0   0.8 0.25 
#> 10 0.566  0.75 0.355 0.367 0.795 0.634 0.799     1     0   0.8 0.5  
#> # ℹ 22 more rows
…
